module gitlab.com/cloudformation.pro/gitlab-ci-validate-jwt

go 1.19

require github.com/lestrrat-go/jwx v1.2.25

require (
	github.com/decred/dcrd/dcrec/secp256k1/v4 v4.1.0 // indirect
	github.com/goccy/go-json v0.9.11 // indirect
	github.com/lestrrat-go/backoff/v2 v2.0.8 // indirect
	github.com/lestrrat-go/blackmagic v1.0.1 // indirect
	github.com/lestrrat-go/httpcc v1.0.1 // indirect
	github.com/lestrrat-go/iter v1.0.2 // indirect
	github.com/lestrrat-go/option v1.0.0 // indirect
	github.com/pkg/errors v0.9.1 // indirect
	golang.org/x/crypto v0.0.0-20221012134737-56aed061732a // indirect
)
